…
ggpredict()
====================================================================================

When you run  `ggpredict()`, it produces a dataframe with a row for every unique 
value of a supplied predictor ("independent") variable (`term`). Each row contains a 
predicted value for the outcome ("dependent") variable, plus confidence intervals.


```r
(lm_1_predicted <- ggpredict(lm_1, terms="wt"))
```

```
# A tibble: 29 x 5
       x predicted conf.low conf.high  group
   <dbl>     <dbl>    <dbl>     <dbl> <fctr>
 1 1.513  26.69942 24.40284  28.99600      1
 2 1.615  26.30388 24.12315  28.48461      1
 3 1.835  25.45076 23.51535  27.38616      1
 4 1.935  25.06297 23.23650  26.88945      1
 5 2.140  24.26802 22.65801  25.87803      1
 6 2.200  24.03535 22.48653  25.58417      1
 7 2.320  23.57001 22.13979  25.00023      1
 8 2.465  23.00772 21.71247  24.30298      1
 9 2.620  22.40666 21.24219  23.57113      1
10 2.770  21.82498 20.76903  22.88094      1
# ... with 19 more rows
```
…
