…
```r
tweets_Trump <- Authenticate("twitter", api_key, api_secret,
                             access_token, access_token_secret) %>% 
  Collect(searchTerm="Trump", language="en", verbose=TRUE) %>% 
  as_tibble()

tweets_Trump %>% arrange(retweetCount) %>% select(text)
```


```
# A tibble: 1,500 x 1
                                                                          text
                                                                         <chr>
 1 Come and see Trump News and see what the orange menace has been up to - htt
 2 Having exhausted every other line of attack, New Republic writer goes after
 3 "Please tell Mocha to log out of Trump's account.\n\nCovfefe and Maram = Sy
 4 Trump believes the trip was a home run where ever he went. He's delusional 
 5 The Loneliness of Donald Trump. Great read - take time to savour this brill
 6 "What is covfefe? Donald Trump baffles with late night Twitter post\n\nhttp
 7 @Hirazistable If we get married Trump won't let me make the decision to pul
 8 @Mikel_Jollett Exactly! Trump is a disaster for the country and the world. 
 9 I like thinking big. If youÃ¢â¬â¢re going to be thinking anything, you mi
10 "Trump: \"How much covfefing does a guy gotta do to get some service around
# ... with 1,490 more rows
```
…
Once you've streamed data in you need to parse it from JSON format into a data frame 
for it to be particularly useful.


```r
tweets_from_stream <- parseTweets(tweets_stream, verbose = FALSE)
as_tibble(tweets_from_stream) %>% arrange(followers_count) %>% select(name)
```


```
# A tibble: 240 x 1
                                                                                                                                                               name
                                                                                                                                                              <chr>
 1                                                                                                                                                     Helen Howell
 2                                                                                                                                                Chococaromishanos
 3 <U+7D20><U+6575><U+306A><U+30A4><U+30E9><U+30B9><U+30C8><U+63CF><U+304D><U+69D8><U+3092><U+4E16><U+754C><U+306B><U+5E83><U+3081><U+307E><U+3057><U+3087><U+3046>
 4                                                                                                                                                      Jutino Ñato
 5                                                                                                                                                  Pepe Concepción
 6                                                                                                                                                   DíaJaramishano
 7                                                                                                                                                ChocoJaramishanos
 8                                                                                                                                                        masayoshi
 9                                                                                                                                                  JaramishanosMMD
10                                                                                                                                                        Black cat
# ... with 230 more rows
```
…
