…
What Values are Out There? Use distinct()
====================================================================================

You can see all the unique values in your data for combinations of columns using `distinct()`:


```r
gapminder %>% distinct(continent, year)
```

```
# A tibble: 60 x 2
   continent  year
   <fct>     <int>
 1 Asia       1952
 2 Asia       1957
 3 Asia       1962
 4 Asia       1967
 5 Asia       1972
 6 Asia       1977
 7 Asia       1982
 8 Asia       1987
 9 Asia       1992
10 Asia       1997
# ... with 50 more rows
```


Note: distinct() drops unused variables!
====================================================================================

Note that the default behavior of `distinct()` is to drop all unspecified columns. If you want to get distinct rows by certain variables without dropping the others, use `distinct(.keep_all=TRUE)`:


```r
gapminder %>% distinct(continent, year, .keep_all=TRUE)
```

```
# A tibble: 60 x 6
   country     continent  year lifeExp      pop gdpPercap
   <fct>       <fct>     <int>   <dbl>    <int>     <dbl>
 1 Afghanistan Asia       1952    28.8  8425333       779
 2 Afghanistan Asia       1957    30.3  9240934       821
 3 Afghanistan Asia       1962    32.0 10267083       853
 4 Afghanistan Asia       1967    34.0 11537966       836
 5 Afghanistan Asia       1972    36.1 13079460       740
 6 Afghanistan Asia       1977    38.4 14880372       786
 7 Afghanistan Asia       1982    39.9 12881816       978
 8 Afghanistan Asia       1987    40.8 13867957       852
 9 Afghanistan Asia       1992    41.7 16317921       649
10 Afghanistan Asia       1997    41.8 22227415       635
# ... with 50 more rows
```
…
Sorting: arrange()
====================================================================================

Along with filtering the data to see certain rows, we might want to sort it:


```r
yugoslavia %>% arrange(year, desc(pop)) # ascending by year, descending by pop
```

```
# A tibble: 60 x 6
   country                continent  year lifeExp     pop gdpPercap
   <fct>                  <fct>     <int>   <dbl>   <int>     <dbl>
 1 Serbia                 Europe     1952    58.0 6860147      3581
 2 Croatia                Europe     1952    61.2 3882229      3119
 3 Bosnia and Herzegovina Europe     1952    53.8 2791000       974
 4 Slovenia               Europe     1952    65.6 1489518      4215
 5 Montenegro             Europe     1952    59.2  413834      2648
 6 Serbia                 Europe     1957    61.7 7271135      4981
 7 Croatia                Europe     1957    64.8 3991242      4338
 8 Bosnia and Herzegovina Europe     1957    58.4 3076000      1354
 9 Slovenia               Europe     1957    67.8 1533070      5862
10 Montenegro             Europe     1957    61.4  442829      3682
# ... with 50 more rows
```
…
case_when()
====================================================================================

`case_when()` performs multiple `ifelse()` operations at the same time. `case_when()` allows you to create a new variable with values based on multiple logical statements. This is useful for making categorical variables or variables from combinations of other variables.


```r
gapminder %>% mutate(gdpPercap_ordinal = case_when(
    gdpPercap < 700 ~ "low",
    gdpPercap >= 700 & gdpPercap < 800 ~ "moderate",
    TRUE ~ "high" )) # Assign this value when all other statements are FALSE
```

```
# A tibble: 1,704 x 7
   country     continent  year lifeExp      pop gdpPercap gdpPercap_ordinal
   <fct>       <fct>     <int>   <dbl>    <int>     <dbl> <chr>            
 1 Afghanistan Asia       1952    28.8  8425333       779 moderate         
 2 Afghanistan Asia       1957    30.3  9240934       821 high             
 3 Afghanistan Asia       1962    32.0 10267083       853 high             
 4 Afghanistan Asia       1967    34.0 11537966       836 high             
 5 Afghanistan Asia       1972    36.1 13079460       740 moderate         
 6 Afghanistan Asia       1977    38.4 14880372       786 moderate         
 7 Afghanistan Asia       1982    39.9 12881816       978 high             
 8 Afghanistan Asia       1987    40.8 13867957       852 high             
 9 Afghanistan Asia       1992    41.7 16317921       649 low              
10 Afghanistan Asia       1997    41.8 22227415       635 low              
# ... with 1,694 more rows
```
…
